[
    {
        "model": "django_q.schedule",
        "pk": 1,
        "fields": {
            "name": "sync che data",
            "func": "src.utils.che_sync.get_company_updates",
            "hook": null,
            "args": "",
            "kwargs": "",
            "schedule_type": "M",
            "minutes": null,
            "repeats": -1,
            "next_run": "2022-01-06T11:02:11Z",
            "cron": null,
            "task": null
        }
    },
    {
        "model": "django_q.schedule",
        "pk": 2,
        "fields": {
            "name": "sync categories",
            "func": "src.utils.sync_categories.sync",
            "hook": null,
            "args": "",
            "kwargs": "",
            "schedule_type": "M",
            "minutes": null,
            "repeats": -1,
            "next_run": "2020-11-05T19:25:59Z",
            "cron": null,
            "task": null
        }
    },
    {
        "model": "django_q.schedule",
        "pk": 3,
        "fields": {
            "name": "sync products images data",
            "func": "src.utils.products_sync.sync",
            "hook": null,
            "args": "",
            "kwargs": "",
            "schedule_type": "H",
            "minutes": null,
            "repeats": -1,
            "next_run": "2021-05-14T20:02:11Z",
            "cron": null,
            "task": null
        }
    },
    {
        "model": "django_q.schedule",
        "pk": 4,
        "fields": {
            "name": "sync cluster and districts data",
            "func": "src.utils.sync_users.backfill_user_clusters",
            "hook": null,
            "args": "",
            "kwargs": "",
            "schedule_type": "H",
            "minutes": null,
            "repeats": -1,
            "next_run": "2021-05-14T20:02:11Z",
            "cron": null,
            "task": null
        }
    },
    {
        "model": "django_q.schedule",
        "pk": 5,
        "fields": {
            "name": "Cleanup outdate data",
            "func": "src.utils.odoo_cleanup.cleanup_unpaid_quotations",
            "hook": null,
            "args": "",
            "kwargs": "",
            "schedule_type": "W",
            "minutes": null,
            "repeats": -1,
            "next_run": "2021-12-15T00:02:11Z",
            "cron": null,
            "task": null
        }
    },
    {
        "model": "django_q.schedule",
        "pk": 6,
        "fields": {
            "name": "Sync company trainings",
            "func": "src.utils.sync_users.sync_company_trainings",
            "hook": null,
            "args": "",
            "kwargs": "",
            "schedule_type": "D",
            "minutes": null,
            "repeats": -1,
            "next_run": "2021-12-15T00:02:11Z",
            "cron": null,
            "task": null
        }
    }
]